%YAML 1.1
%TAG !u! tag:unity3d.com,2011:
--- !u!74 &7400000
AnimationClip:
  m_ObjectHideFlags: 0
  m_CorrespondingSourceObject: {fileID: 0}
  m_PrefabInstance: {fileID: 0}
  m_PrefabAsset: {fileID: 0}
  m_Name: EskoScandal
  serializedVersion: 6
  m_Legacy: 0
  m_Compressed: 0
  m_UseHighQualityCurve: 1
  m_RotationCurves: []
  m_CompressedRotationCurves: []
  m_EulerCurves: []
  m_PositionCurves: []
  m_ScaleCurves: []
  m_FloatCurves: []
  m_PPtrCurves:
  - curve:
    - time: 0
      value: {fileID: 193439850498050557, guid: 56d0a98e26bc2f7448d15d184c6824f4,
        type: 3}
    - time: 0.16666667
      value: {fileID: 8747873337558847703, guid: 56d0a98e26bc2f7448d15d184c6824f4,
        type: 3}
    - time: 0.33333334
      value: {fileID: 1353293745961672774, guid: 56d0a98e26bc2f7448d15d184c6824f4,
        type: 3}
    - time: 0.5
      value: {fileID: -5405213876718891913, guid: 56d0a98e26bc2f7448d15d184c6824f4,
        type: 3}
    - time: 0.6666667
      value: {fileID: 158183041940443876, guid: 56d0a98e26bc2f7448d15d184c6824f4,
        type: 3}
    - time: 0.8333333
      value: {fileID: -5132558850480686372, guid: 56d0a98e26bc2f7448d15d184c6824f4,
        type: 3}
    - time: 1
      value: {fileID: -7306020585648848774, guid: 56d0a98e26bc2f7448d15d184c6824f4,
        type: 3}
    - time: 1.1666666
      value: {fileID: -2506771813794828829, guid: 56d0a98e26bc2f7448d15d184c6824f4,
        type: 3}
    - time: 1.3333334
      value: {fileID: 1652541625834713947, guid: 56d0a98e26bc2f7448d15d184c6824f4,
        type: 3}
    - time: 1.5
      value: {fileID: 5918024721150182543, guid: 56d0a98e26bc2f7448d15d184c6824f4,
        type: 3}
    - time: 1.6666666
      value: {fileID: 3378707472562336997, guid: 56d0a98e26bc2f7448d15d184c6824f4,
        type: 3}
    - time: 1.8333334
      value: {fileID: -1579243651532885393, guid: 56d0a98e26bc2f7448d15d184c6824f4,
        type: 3}
    - time: 2
      value: {fileID: -4677901034333286890, guid: 56d0a98e26bc2f7448d15d184c6824f4,
        type: 3}
    - time: 2.1666667
      value: {fileID: -2848493195539602838, guid: 56d0a98e26bc2f7448d15d184c6824f4,
        type: 3}
    - time: 2.3333333
      value: {fileID: -8516998994879694627, guid: 56d0a98e26bc2f7448d15d184c6824f4,
        type: 3}
    - time: 2.5
      value: {fileID: -818241387029345319, guid: 56d0a98e26bc2f7448d15d184c6824f4,
        type: 3}
    - time: 2.6666667
      value: {fileID: -5646124334125537659, guid: 56d0a98e26bc2f7448d15d184c6824f4,
        type: 3}
    - time: 2.8333333
      value: {fileID: 7181901945680849543, guid: 56d0a98e26bc2f7448d15d184c6824f4,
        type: 3}
    - time: 3
      value: {fileID: -1029670840801135412, guid: 56d0a98e26bc2f7448d15d184c6824f4,
        type: 3}
    - time: 3.1666667
      value: {fileID: 4123960678909259728, guid: 56d0a98e26bc2f7448d15d184c6824f4,
        type: 3}
    - time: 3.3333333
      value: {fileID: 604794920978314342, guid: 56d0a98e26bc2f7448d15d184c6824f4,
        type: 3}
    - time: 3.5
      value: {fileID: 7952495181333551446, guid: 56d0a98e26bc2f7448d15d184c6824f4,
        type: 3}
    - time: 3.6666667
      value: {fileID: 2469815912729370071, guid: 56d0a98e26bc2f7448d15d184c6824f4,
        type: 3}
    - time: 3.8333333
      value: {fileID: -7638405339192536117, guid: 56d0a98e26bc2f7448d15d184c6824f4,
        type: 3}
    - time: 4
      value: {fileID: 3048387627251877971, guid: 56d0a98e26bc2f7448d15d184c6824f4,
        type: 3}
    attribute: m_Sprite
    path: 
    classID: 212
    script: {fileID: 0}
  m_SampleRate: 6
  m_WrapMode: 0
  m_Bounds:
    m_Center: {x: 0, y: 0, z: 0}
    m_Extent: {x: 0, y: 0, z: 0}
  m_ClipBindingConstant:
    genericBindings:
    - serializedVersion: 2
      path: 0
      attribute: 0
      script: {fileID: 0}
      typeID: 212
      customType: 23
      isPPtrCurve: 1
    pptrCurveMapping:
    - {fileID: 193439850498050557, guid: 56d0a98e26bc2f7448d15d184c6824f4, type: 3}
    - {fileID: 8747873337558847703, guid: 56d0a98e26bc2f7448d15d184c6824f4, type: 3}
    - {fileID: 1353293745961672774, guid: 56d0a98e26bc2f7448d15d184c6824f4, type: 3}
    - {fileID: -5405213876718891913, guid: 56d0a98e26bc2f7448d15d184c6824f4, type: 3}
    - {fileID: 158183041940443876, guid: 56d0a98e26bc2f7448d15d184c6824f4, type: 3}
    - {fileID: -5132558850480686372, guid: 56d0a98e26bc2f7448d15d184c6824f4, type: 3}
    - {fileID: -7306020585648848774, guid: 56d0a98e26bc2f7448d15d184c6824f4, type: 3}
    - {fileID: -2506771813794828829, guid: 56d0a98e26bc2f7448d15d184c6824f4, type: 3}
    - {fileID: 1652541625834713947, guid: 56d0a98e26bc2f7448d15d184c6824f4, type: 3}
    - {fileID: 5918024721150182543, guid: 56d0a98e26bc2f7448d15d184c6824f4, type: 3}
    - {fileID: 3378707472562336997, guid: 56d0a98e26bc2f7448d15d184c6824f4, type: 3}
    - {fileID: -1579243651532885393, guid: 56d0a98e26bc2f7448d15d184c6824f4, type: 3}
    - {fileID: -4677901034333286890, guid: 56d0a98e26bc2f7448d15d184c6824f4, type: 3}
    - {fileID: -2848493195539602838, guid: 56d0a98e26bc2f7448d15d184c6824f4, type: 3}
    - {fileID: -8516998994879694627, guid: 56d0a98e26bc2f7448d15d184c6824f4, type: 3}
    - {fileID: -818241387029345319, guid: 56d0a98e26bc2f7448d15d184c6824f4, type: 3}
    - {fileID: -5646124334125537659, guid: 56d0a98e26bc2f7448d15d184c6824f4, type: 3}
    - {fileID: 7181901945680849543, guid: 56d0a98e26bc2f7448d15d184c6824f4, type: 3}
    - {fileID: -1029670840801135412, guid: 56d0a98e26bc2f7448d15d184c6824f4, type: 3}
    - {fileID: 4123960678909259728, guid: 56d0a98e26bc2f7448d15d184c6824f4, type: 3}
    - {fileID: 604794920978314342, guid: 56d0a98e26bc2f7448d15d184c6824f4, type: 3}
    - {fileID: 7952495181333551446, guid: 56d0a98e26bc2f7448d15d184c6824f4, type: 3}
    - {fileID: 2469815912729370071, guid: 56d0a98e26bc2f7448d15d184c6824f4, type: 3}
    - {fileID: -7638405339192536117, guid: 56d0a98e26bc2f7448d15d184c6824f4, type: 3}
    - {fileID: 3048387627251877971, guid: 56d0a98e26bc2f7448d15d184c6824f4, type: 3}
  m_AnimationClipSettings:
    serializedVersion: 2
    m_AdditiveReferencePoseClip: {fileID: 0}
    m_AdditiveReferencePoseTime: 0
    m_StartTime: 0
    m_StopTime: 4.1666665
    m_OrientationOffsetY: 0
    m_Level: 0
    m_CycleOffset: 0
    m_HasAdditiveReferencePose: 0
    m_LoopTime: 1
    m_LoopBlend: 0
    m_LoopBlendOrientation: 0
    m_LoopBlendPositionY: 0
    m_LoopBlendPositionXZ: 0
    m_KeepOriginalOrientation: 0
    m_KeepOriginalPositionY: 1
    m_KeepOriginalPositionXZ: 0
    m_HeightFromFeet: 0
    m_Mirror: 0
  m_EditorCurves: []
  m_EulerEditorCurves: []
  m_HasGenericRootTransform: 0
  m_HasMotionFloatCurves: 0
  m_Events: []
