%YAML 1.1
%TAG !u! tag:unity3d.com,2011:
--- !u!74 &7400000
AnimationClip:
  m_ObjectHideFlags: 0
  m_CorrespondingSourceObject: {fileID: 0}
  m_PrefabInstance: {fileID: 0}
  m_PrefabAsset: {fileID: 0}
  m_Name: SuzannaWalk(Bowl)
  serializedVersion: 6
  m_Legacy: 0
  m_Compressed: 0
  m_UseHighQualityCurve: 1
  m_RotationCurves: []
  m_CompressedRotationCurves: []
  m_EulerCurves: []
  m_PositionCurves: []
  m_ScaleCurves: []
  m_FloatCurves: []
  m_PPtrCurves:
  - curve:
    - time: 0
      value: {fileID: -1620024906076186260, guid: 5c767b0fbaa0cd04d9e4d4c71a6cf9fd,
        type: 3}
    - time: 0.2
      value: {fileID: -8508532270978371430, guid: 5c767b0fbaa0cd04d9e4d4c71a6cf9fd,
        type: 3}
    - time: 0.4
      value: {fileID: 2629872491463131058, guid: 5c767b0fbaa0cd04d9e4d4c71a6cf9fd,
        type: 3}
    - time: 0.6
      value: {fileID: -4847234194799676666, guid: 5c767b0fbaa0cd04d9e4d4c71a6cf9fd,
        type: 3}
    - time: 0.8
      value: {fileID: -5201099739228141874, guid: 5c767b0fbaa0cd04d9e4d4c71a6cf9fd,
        type: 3}
    - time: 1
      value: {fileID: -243440141121541830, guid: 5c767b0fbaa0cd04d9e4d4c71a6cf9fd,
        type: 3}
    - time: 1.2
      value: {fileID: 4174311585500622637, guid: 5c767b0fbaa0cd04d9e4d4c71a6cf9fd,
        type: 3}
    - time: 1.4
      value: {fileID: 7366015235692317099, guid: 5c767b0fbaa0cd04d9e4d4c71a6cf9fd,
        type: 3}
    - time: 1.6
      value: {fileID: 877869362005928789, guid: 5c767b0fbaa0cd04d9e4d4c71a6cf9fd,
        type: 3}
    - time: 1.8
      value: {fileID: 2787225936016050797, guid: 5c767b0fbaa0cd04d9e4d4c71a6cf9fd,
        type: 3}
    - time: 2
      value: {fileID: 6286523059280380047, guid: 5c767b0fbaa0cd04d9e4d4c71a6cf9fd,
        type: 3}
    - time: 2.2
      value: {fileID: 2122960719606968203, guid: 5c767b0fbaa0cd04d9e4d4c71a6cf9fd,
        type: 3}
    attribute: m_Sprite
    path: 
    classID: 212
    script: {fileID: 0}
  m_SampleRate: 5
  m_WrapMode: 0
  m_Bounds:
    m_Center: {x: 0, y: 0, z: 0}
    m_Extent: {x: 0, y: 0, z: 0}
  m_ClipBindingConstant:
    genericBindings:
    - serializedVersion: 2
      path: 0
      attribute: 0
      script: {fileID: 0}
      typeID: 212
      customType: 23
      isPPtrCurve: 1
    pptrCurveMapping:
    - {fileID: -1620024906076186260, guid: 5c767b0fbaa0cd04d9e4d4c71a6cf9fd, type: 3}
    - {fileID: -8508532270978371430, guid: 5c767b0fbaa0cd04d9e4d4c71a6cf9fd, type: 3}
    - {fileID: 2629872491463131058, guid: 5c767b0fbaa0cd04d9e4d4c71a6cf9fd, type: 3}
    - {fileID: -4847234194799676666, guid: 5c767b0fbaa0cd04d9e4d4c71a6cf9fd, type: 3}
    - {fileID: -5201099739228141874, guid: 5c767b0fbaa0cd04d9e4d4c71a6cf9fd, type: 3}
    - {fileID: -243440141121541830, guid: 5c767b0fbaa0cd04d9e4d4c71a6cf9fd, type: 3}
    - {fileID: 4174311585500622637, guid: 5c767b0fbaa0cd04d9e4d4c71a6cf9fd, type: 3}
    - {fileID: 7366015235692317099, guid: 5c767b0fbaa0cd04d9e4d4c71a6cf9fd, type: 3}
    - {fileID: 877869362005928789, guid: 5c767b0fbaa0cd04d9e4d4c71a6cf9fd, type: 3}
    - {fileID: 2787225936016050797, guid: 5c767b0fbaa0cd04d9e4d4c71a6cf9fd, type: 3}
    - {fileID: 6286523059280380047, guid: 5c767b0fbaa0cd04d9e4d4c71a6cf9fd, type: 3}
    - {fileID: 2122960719606968203, guid: 5c767b0fbaa0cd04d9e4d4c71a6cf9fd, type: 3}
  m_AnimationClipSettings:
    serializedVersion: 2
    m_AdditiveReferencePoseClip: {fileID: 0}
    m_AdditiveReferencePoseTime: 0
    m_StartTime: 0
    m_StopTime: 2.4
    m_OrientationOffsetY: 0
    m_Level: 0
    m_CycleOffset: 0
    m_HasAdditiveReferencePose: 0
    m_LoopTime: 1
    m_LoopBlend: 0
    m_LoopBlendOrientation: 0
    m_LoopBlendPositionY: 0
    m_LoopBlendPositionXZ: 0
    m_KeepOriginalOrientation: 0
    m_KeepOriginalPositionY: 1
    m_KeepOriginalPositionXZ: 0
    m_HeightFromFeet: 0
    m_Mirror: 0
  m_EditorCurves: []
  m_EulerEditorCurves: []
  m_HasGenericRootTransform: 0
  m_HasMotionFloatCurves: 0
  m_Events: []
