%YAML 1.1
%TAG !u! tag:unity3d.com,2011:
--- !u!221 &22100000
AnimatorOverrideController:
  m_ObjectHideFlags: 0
  m_CorrespondingSourceObject: {fileID: 0}
  m_PrefabInstance: {fileID: 0}
  m_PrefabAsset: {fileID: 0}
  m_Name: Breakfast
  m_Controller: {fileID: 9100000, guid: 30b74016bc593ce4083b1f85f6d817a6, type: 2}
  m_Clips:
  - m_OriginalClip: {fileID: 7400000, guid: 62541dd5e6c05234cb19b922fdf819cc, type: 2}
    m_OverrideClip: {fileID: 7400000, guid: 3a108b91aebacd447be6cdcc2eed4287, type: 2}
  - m_OriginalClip: {fileID: 7400000, guid: ccc85c4d5f5e5784ca86e11e303f6c67, type: 2}
    m_OverrideClip: {fileID: 7400000, guid: e32427cbcc8c70445be388d555f2ee67, type: 2}
  - m_OriginalClip: {fileID: 7400000, guid: 2b6d90030993d0948af496591b39f2f2, type: 2}
    m_OverrideClip: {fileID: 7400000, guid: ec0c47679f9df104ba3fe0eabbc49758, type: 2}
  - m_OriginalClip: {fileID: 7400000, guid: 3d3acd05c82264c478205ae7e048031a, type: 2}
    m_OverrideClip: {fileID: 7400000, guid: 205685842ebfbed4ead80e43b9385dde, type: 2}
  - m_OriginalClip: {fileID: 7400000, guid: e964a68c915a42549b11e5683f303724, type: 2}
    m_OverrideClip: {fileID: 7400000, guid: 5286b066b5f8a70439ff4008e7a072fc, type: 2}
  - m_OriginalClip: {fileID: 7400000, guid: 40fafc655ecc4d045b4e08cf9cf49002, type: 2}
    m_OverrideClip: {fileID: 7400000, guid: bad8acd0123bbc54e95942544da52e32, type: 2}
  - m_OriginalClip: {fileID: 7400000, guid: 662adc24c561b404bba8352f2c9484c0, type: 2}
    m_OverrideClip: {fileID: 7400000, guid: 8b2daf772636b33438d3202f5ae8a598, type: 2}
  - m_OriginalClip: {fileID: 7400000, guid: 5ca39f2535151d24e8f5fc8cadf76ac0, type: 2}
    m_OverrideClip: {fileID: 7400000, guid: 1359ddb220e721f46b630f4f9cacbf34, type: 2}
  - m_OriginalClip: {fileID: 7400000, guid: f9b9a253eac917449a7bfb4a164cbfd8, type: 2}
    m_OverrideClip: {fileID: 7400000, guid: 7463f342643e7284990fa480e027023b, type: 2}
  - m_OriginalClip: {fileID: 7400000, guid: df42b2f0636578d4c99b517acde95a07, type: 2}
    m_OverrideClip: {fileID: 7400000, guid: 09145801fa663154aa0b235764dbbcba, type: 2}
