%YAML 1.1
%TAG !u! tag:unity3d.com,2011:
--- !u!221 &22100000
AnimatorOverrideController:
  m_ObjectHideFlags: 0
  m_CorrespondingSourceObject: {fileID: 0}
  m_PrefabInstance: {fileID: 0}
  m_PrefabAsset: {fileID: 0}
  m_Name: Church1
  m_Controller: {fileID: 9100000, guid: 30b74016bc593ce4083b1f85f6d817a6, type: 2}
  m_Clips:
  - m_OriginalClip: {fileID: 7400000, guid: 62541dd5e6c05234cb19b922fdf819cc, type: 2}
    m_OverrideClip: {fileID: 7400000, guid: 5cd67596f4e4787449e361c4ba79f4b1, type: 2}
  - m_OriginalClip: {fileID: 7400000, guid: ccc85c4d5f5e5784ca86e11e303f6c67, type: 2}
    m_OverrideClip: {fileID: 7400000, guid: b1a3a285ad3429446be30b4ae1badab5, type: 2}
  - m_OriginalClip: {fileID: 7400000, guid: 2b6d90030993d0948af496591b39f2f2, type: 2}
    m_OverrideClip: {fileID: 7400000, guid: 1ca7944796d99d641b0e1c0e5d095bf7, type: 2}
  - m_OriginalClip: {fileID: 7400000, guid: 3d3acd05c82264c478205ae7e048031a, type: 2}
    m_OverrideClip: {fileID: 7400000, guid: 65a583c88b3516c4d887ee845313d2d7, type: 2}
  - m_OriginalClip: {fileID: 7400000, guid: e964a68c915a42549b11e5683f303724, type: 2}
    m_OverrideClip: {fileID: 7400000, guid: df90d43b9be8bea48a79474a2d5c29a1, type: 2}
  - m_OriginalClip: {fileID: 7400000, guid: 662adc24c561b404bba8352f2c9484c0, type: 2}
    m_OverrideClip: {fileID: 7400000, guid: 0c495bda699f034408c29013779447e3, type: 2}
  - m_OriginalClip: {fileID: 7400000, guid: 5ca39f2535151d24e8f5fc8cadf76ac0, type: 2}
    m_OverrideClip: {fileID: 7400000, guid: efb67b972deadea48bba254a7dd1489c, type: 2}
  - m_OriginalClip: {fileID: 7400000, guid: df42b2f0636578d4c99b517acde95a07, type: 2}
    m_OverrideClip: {fileID: 7400000, guid: 9348112432f7d0a4dafa39e32569be09, type: 2}
  - m_OriginalClip: {fileID: 7400000, guid: 40fafc655ecc4d045b4e08cf9cf49002, type: 2}
    m_OverrideClip: {fileID: 7400000, guid: de3d3bf1c8123df4285353b7d7211553, type: 2}
  - m_OriginalClip: {fileID: 7400000, guid: f9b9a253eac917449a7bfb4a164cbfd8, type: 2}
    m_OverrideClip: {fileID: 7400000, guid: 1fefdee412023d747aae36eb6979a62e, type: 2}
