%YAML 1.1
%TAG !u! tag:unity3d.com,2011:
--- !u!221 &22100000
AnimatorOverrideController:
  m_ObjectHideFlags: 0
  m_CorrespondingSourceObject: {fileID: 0}
  m_PrefabInstance: {fileID: 0}
  m_PrefabAsset: {fileID: 0}
  m_Name: Eras1
  m_Controller: {fileID: 9100000, guid: 30b74016bc593ce4083b1f85f6d817a6, type: 2}
  m_Clips:
  - m_OriginalClip: {fileID: 7400000, guid: 62541dd5e6c05234cb19b922fdf819cc, type: 2}
    m_OverrideClip: {fileID: 7400000, guid: 85061ef245e09fc42a39b9d7179144a3, type: 2}
  - m_OriginalClip: {fileID: 7400000, guid: ccc85c4d5f5e5784ca86e11e303f6c67, type: 2}
    m_OverrideClip: {fileID: 7400000, guid: 2a5b73c1247f0664ba6e802690d2cd50, type: 2}
  - m_OriginalClip: {fileID: 7400000, guid: 3d3acd05c82264c478205ae7e048031a, type: 2}
    m_OverrideClip: {fileID: 7400000, guid: 3de48b7b69bfc324aa71d3576f55c387, type: 2}
  - m_OriginalClip: {fileID: 7400000, guid: 2b6d90030993d0948af496591b39f2f2, type: 2}
    m_OverrideClip: {fileID: 7400000, guid: 6833229408dbd5f439817a141711d114, type: 2}
  - m_OriginalClip: {fileID: 7400000, guid: 5ca39f2535151d24e8f5fc8cadf76ac0, type: 2}
    m_OverrideClip: {fileID: 7400000, guid: f20115d740a959946a0b559358c1cbf0, type: 2}
  - m_OriginalClip: {fileID: 7400000, guid: df42b2f0636578d4c99b517acde95a07, type: 2}
    m_OverrideClip: {fileID: 7400000, guid: 798241f9350742243a25f90ec82d5b76, type: 2}
  - m_OriginalClip: {fileID: 7400000, guid: 662adc24c561b404bba8352f2c9484c0, type: 2}
    m_OverrideClip: {fileID: 7400000, guid: 7b97e70283aed7f4bb5d6d968f3b134b, type: 2}
  - m_OriginalClip: {fileID: 7400000, guid: e964a68c915a42549b11e5683f303724, type: 2}
    m_OverrideClip: {fileID: 7400000, guid: 453cb25fb35f88a44862277dd7ba2310, type: 2}
  - m_OriginalClip: {fileID: 7400000, guid: 40fafc655ecc4d045b4e08cf9cf49002, type: 2}
    m_OverrideClip: {fileID: 7400000, guid: e38557c69d50d8e4cbb77571501f2ee4, type: 2}
  - m_OriginalClip: {fileID: 7400000, guid: f9b9a253eac917449a7bfb4a164cbfd8, type: 2}
    m_OverrideClip: {fileID: 7400000, guid: 282906117c4cf554f9f2107b948b2f08, type: 2}
