%YAML 1.1
%TAG !u! tag:unity3d.com,2011:
--- !u!221 &22100000
AnimatorOverrideController:
  m_ObjectHideFlags: 0
  m_CorrespondingSourceObject: {fileID: 0}
  m_PrefabInstance: {fileID: 0}
  m_PrefabAsset: {fileID: 0}
  m_Name: Fae2
  m_Controller: {fileID: 9100000, guid: 30b74016bc593ce4083b1f85f6d817a6, type: 2}
  m_Clips:
  - m_OriginalClip: {fileID: 7400000, guid: 62541dd5e6c05234cb19b922fdf819cc, type: 2}
    m_OverrideClip: {fileID: 7400000, guid: 20f965ca756c20941bee39ae0c620379, type: 2}
  - m_OriginalClip: {fileID: 7400000, guid: ccc85c4d5f5e5784ca86e11e303f6c67, type: 2}
    m_OverrideClip: {fileID: 7400000, guid: 0e0ec9bcafbe26e49ab8018bfcc1fac9, type: 2}
  - m_OriginalClip: {fileID: 7400000, guid: 3d3acd05c82264c478205ae7e048031a, type: 2}
    m_OverrideClip: {fileID: 7400000, guid: 54ece27e44d658c4cb5154e96299e069, type: 2}
  - m_OriginalClip: {fileID: 7400000, guid: 2b6d90030993d0948af496591b39f2f2, type: 2}
    m_OverrideClip: {fileID: 7400000, guid: c24d606eb446c574ab869dd2bc46126f, type: 2}
  - m_OriginalClip: {fileID: 7400000, guid: e964a68c915a42549b11e5683f303724, type: 2}
    m_OverrideClip: {fileID: 7400000, guid: f4179c1595db6c147b43e935276d2bcd, type: 2}
  - m_OriginalClip: {fileID: 7400000, guid: 662adc24c561b404bba8352f2c9484c0, type: 2}
    m_OverrideClip: {fileID: 7400000, guid: 4af715a62ab215049916443ef0cc31cb, type: 2}
  - m_OriginalClip: {fileID: 7400000, guid: 5ca39f2535151d24e8f5fc8cadf76ac0, type: 2}
    m_OverrideClip: {fileID: 7400000, guid: 8708e13c26c16bb41a66c0f4a7279afa, type: 2}
  - m_OriginalClip: {fileID: 7400000, guid: df42b2f0636578d4c99b517acde95a07, type: 2}
    m_OverrideClip: {fileID: 7400000, guid: 945e46c9eedd8884db9366cc6d1a0005, type: 2}
  - m_OriginalClip: {fileID: 7400000, guid: 40fafc655ecc4d045b4e08cf9cf49002, type: 2}
    m_OverrideClip: {fileID: 7400000, guid: 0b43347df6306c34d9bfc26fb3208705, type: 2}
  - m_OriginalClip: {fileID: 7400000, guid: f9b9a253eac917449a7bfb4a164cbfd8, type: 2}
    m_OverrideClip: {fileID: 7400000, guid: adc205e61ce2b024f93f4b39454c5208, type: 2}
