%YAML 1.1
%TAG !u! tag:unity3d.com,2011:
--- !u!221 &22100000
AnimatorOverrideController:
  m_ObjectHideFlags: 0
  m_CorrespondingSourceObject: {fileID: 0}
  m_PrefabInstance: {fileID: 0}
  m_PrefabAsset: {fileID: 0}
  m_Name: Orc1
  m_Controller: {fileID: 9100000, guid: 30b74016bc593ce4083b1f85f6d817a6, type: 2}
  m_Clips:
  - m_OriginalClip: {fileID: 7400000, guid: 62541dd5e6c05234cb19b922fdf819cc, type: 2}
    m_OverrideClip: {fileID: 7400000, guid: df867bd14ec54834f872b28bf56dda31, type: 2}
  - m_OriginalClip: {fileID: 7400000, guid: ccc85c4d5f5e5784ca86e11e303f6c67, type: 2}
    m_OverrideClip: {fileID: 7400000, guid: 24d64452d05bdae4fbd4f18f6bf8984a, type: 2}
  - m_OriginalClip: {fileID: 7400000, guid: 2b6d90030993d0948af496591b39f2f2, type: 2}
    m_OverrideClip: {fileID: 7400000, guid: 350b63b2810979a4db86c42c73e3c1e5, type: 2}
  - m_OriginalClip: {fileID: 7400000, guid: 3d3acd05c82264c478205ae7e048031a, type: 2}
    m_OverrideClip: {fileID: 7400000, guid: 0526d819aacc35d45bca8a1b05c4700f, type: 2}
  - m_OriginalClip: {fileID: 7400000, guid: e964a68c915a42549b11e5683f303724, type: 2}
    m_OverrideClip: {fileID: 7400000, guid: 62527e7d129d1ff4da4306b57c03cd8a, type: 2}
  - m_OriginalClip: {fileID: 7400000, guid: 662adc24c561b404bba8352f2c9484c0, type: 2}
    m_OverrideClip: {fileID: 7400000, guid: da2f67e626086934d87247346b010261, type: 2}
  - m_OriginalClip: {fileID: 7400000, guid: 5ca39f2535151d24e8f5fc8cadf76ac0, type: 2}
    m_OverrideClip: {fileID: 7400000, guid: 6b6e54bbbf4861548a60b800ec9e9c57, type: 2}
  - m_OriginalClip: {fileID: 7400000, guid: df42b2f0636578d4c99b517acde95a07, type: 2}
    m_OverrideClip: {fileID: 7400000, guid: 5eb58e51cb8d27d45b84f77f3e3a10b5, type: 2}
  - m_OriginalClip: {fileID: 7400000, guid: 40fafc655ecc4d045b4e08cf9cf49002, type: 2}
    m_OverrideClip: {fileID: 7400000, guid: b2433235d3fa29e47815ea11a7eac8f6, type: 2}
  - m_OriginalClip: {fileID: 7400000, guid: f9b9a253eac917449a7bfb4a164cbfd8, type: 2}
    m_OverrideClip: {fileID: 7400000, guid: bb19bc27c4b3180479b474f31daeab05, type: 2}
